daniel.baggeroer,7e416f9c-53ef-4e2b-a918-eb778276dbf0
joseph.bagwell,7355d448-f3a5-41f3-8e59-38222325193e
justin.boucher,ab06db84-3942-468e-9caf-b50023577a49
david.brady,0e6efcde-19f2-40ef-8e6d-f687d4ec518a
sean.brennan,90dcf0e2-2bd0-44d4-9a05-5a0621298b9d
grover.carleton,0ddea942-cf24-4de0-8da0-1c00fca1a799
rodney.cesar,ab9a9138-1a80-4e4f-a30b-a40ea8ba36c1
michael.gerba,20115f37-c57b-4714-8176-893f0f3308f1
suzanne.ham,c104bbf3-b3e6-4a04-abe3-844c64fc0f3c
jessie.henline,667fdb92-5557-485c-8cae-5dd14dfd3db0
joshua.hindman,48c13acc-a3f5-48f7-af69-71a61c0641cb
garrett.johnson,1ad7de7f-0392-458f-9667-1ce166027db1
donald.lane,d1c4e5d3-292a-40dd-b4bd-22f2a6fa2960
bill.littleton,a188d5e2-6941-4fe8-94ef-c171b7af847a
sam.mikitarian,7b650312-d2a8-4d93-aee4-86222a9db08a
rick.norwood,c36144fe-6821-4e34-946e-67abfb1ac229
alexis.phillips,d9e45edf-6812-4b9d-b7fd-a7007de720b4
chase.riera,98b9b0c0-612f-4872-b659-a54aa006307e
craig.rosenberger,9b7c7450-dc99-4eb5-839b-4dfd8b7572df
dee.smith,2d5593cd-6e9e-42fa-b1ff-38867cc6c1b8
christopher.thomas,99853cd4-3b50-42d4-b36b-2b923b94e68a
kyle.wukawitz,dca4be95-35e4-40b0-9089-f9e07f732e2d
