{
    "Version": "2012-10-17",
    "Statement": [
        {
            "Sid": "EcsExecution",
            "Effect": "Allow",
            "Action": [
                "ecr:GetAuthorizationToken",
                "ecr:BatchCheckLayerAvailability",
                "ecr:GetDownloadUrlForLayer",
                "ecr:BatchGetImage",
                "logs:CreateLogStream",
                "logs:PutLogEvents"
            ],
            "Resource": "*"
        },
        {
            "Sid": "SecretManagerAccess",
            "Effect": "Allow",
            "Action": [
                "secretsmanager:GetSecretValue",
                "kms:Decrypt"
            ],
            "Resource": [
                "arn:${partition}:secretsmanager:${region}:${account_id}:secret:${name_prefix}/*"
            ]
        },
        {
            "Sid": "SystemsManagerParameter",
            "Effect": "Allow",
            "Action": [
                "ssm:GetParametersByPath",
                "ssm:GetParameter"
            ],
            "Resource": [
                "arn:${partition}:ssm:${region}:${account_id}:parameter/*"
            ]
        },
        {
            "Sid": "DDBAccess",
            "Effect": "Allow",
            "Action": [
                "dynamodb:DescribeTable",
                "dynamodb:ListTables",
                "dynamodb:GetItem",
                "dynamodb:Scan",
                "dynamodb:BatchWriteItem",
                "dynamodb:PutItem",
                "dynamodb:UpdateItem"
            ],
            "Resource": [
                "arn:${partition}:dynamodb:${region}:${account_id}:table/*"
            ]
        },
        {
            "Sid": "S3ReadWriteAccess",
            "Effect": "Allow",
            "Action": [
                "s3:ListBucket",
                "s3:GetObject",
                "s3:HeadBucket",
                "s3:PutObject",
                "s3:DeleteObject"
            ],
            "Resource": [
                "arn:${partition}:s3:::${name_prefix}*",
                "arn:${partition}:s3:::${name_prefix}*/*"
            ]
        }
    ]
}
